^C:\USERS\UPAYER\TEACHING\$-HAKWEIZ\5DK_IMCM\20101126\XPATH\EDITFORM.RESX|C:\USERS\UPAYER\TEACHING\$-HAKWEIZ\5DK_IMCM\20101126\XPATH\FORM1.RESX
C:\USERS\UPAYER\TEACHING\$-HAKWEIZ\5DK_IMCM\20101126\XPATH\OBJ\DEBUG\XPATH.EDITFORM.RESOURCES
C:\USERS\UPAYER\TEACHING\$-HAKWEIZ\5DK_IMCM\20101126\XPATH\OBJ\DEBUG\XPATH.FORM1.RESOURCES
^C:\USERS\UPAYER\TEACHING\$HAKWEIZ2011-2012\5AK_SWPP\20111214\XPATH(RAW)\EDITFORM.RESX|C:\USERS\UPAYER\TEACHING\$HAKWEIZ2011-2012\5AK_SWPP\20111214\XPATH(RAW)\FORM1.RESX
C:\USERS\UPAYER\TEACHING\$HAKWEIZ2011-2012\5AK_SWPP\20111214\XPATH(RAW)\OBJ\DEBUG\XPATH.EDITFORM.RESOURCES
C:\USERS\UPAYER\TEACHING\$HAKWEIZ2011-2012\5AK_SWPP\20111214\XPATH(RAW)\OBJ\DEBUG\XPATH.FORM1.RESOURCES
